t;P
0.0;11724.7222534
0.001001001;11734.5849463
0.002002002;11744.9735176
0.003003003;11755.7532343
0.004004004;11766.7893635
0.005005005;11777.9471723
0.006006006;11789.0919276
0.007007007;11800.0888966
0.008008008;11810.8033462
0.009009009;11821.1005433
0.01001001;11830.8614381
0.011011011;11840.049488
0.012012012;11848.6551881
0.013013013;11856.6690491
0.014014014;11864.0815816
0.015015015;11870.883296
0.016016016;11877.0647035
0.017017017;11882.6163142
0.018018018;11887.5286392
0.019019019;11891.7921888
0.02002002;11895.4251535
0.021021021;11898.6387607
0.022022022;11901.7264415
0.023023023;11904.9819306
0.024024024;11908.6989631
0.025025025;11913.1712739
0.026026026;11918.6925977
0.027027027;11925.5566698
0.028028028;11934.0572247
0.029029029;11944.4879975
0.03003003;11957.1156141
0.031031031;11971.9519739
0.032032032;11988.8694079
0.033033033;12007.7388177
0.034034034;12028.4311049
0.035035035;12050.8171713
0.036036036;12074.7679182
0.037037037;12100.1542478
0.038038038;12126.8470611
0.039039039;12154.71726
0.04004004;12183.6578216
0.041041041;12213.8487643
0.042042042;12245.6708434
0.043043043;12279.5089333
0.044044044;12315.7479078
0.045045045;12354.7726411
0.046046046;12396.9680076
0.047047047;12442.7188811
0.048048048;12492.4101361
0.049049049;12546.4266465
0.05005005;12605.1350259
0.051051051;12668.5595858
0.052052052;12736.4206325
0.053053053;12808.4279043
0.054054054;12884.29114
0.055055055;12963.7200783
0.056056056;13046.4244579
0.057057057;13132.1140172
0.058058058;13220.4984949
0.059059059;13311.2876297
0.06006006;13404.1946548
0.061061061;13499.0333386
0.062062062;13595.7306493
0.063063063;13694.2195933
0.064064064;13794.4331777
0.065065065;13896.3044093
0.066066066;13999.766295
0.067067067;14104.7518416
0.068068068;14211.1940558
0.069069069;14319.0259448
0.07007007;14428.179994
0.071071071;14538.563297
0.072072072;14650.0466374
0.073073073;14762.4980068
0.074074074;14875.7853963
0.075075075;14989.7767972
0.076076076;15104.3402009
0.077077077;15219.3435988
0.078078078;15334.654982
0.079079079;15450.1423419
0.08008008;15565.6724345
0.081081081;15680.9914077
0.082082082;15795.6252864
0.083083083;15909.076669
0.084084084;16020.8481541
0.085085085;16130.4423403
0.086086086;16237.3618261
0.087087087;16341.1092103
0.088088088;16441.1870914
0.089089089;16537.0980679
0.09009009;16628.3455983
0.091091091;16714.6658725
0.092092092;16796.3415953
0.093093093;16873.7338371
0.094094094;16947.2036679
0.095095095;17017.1121582
0.096096096;17083.8203779
0.097097097;17147.6893976
0.098098098;17209.0802872
0.099099099;17268.3541172
0.1001001;17325.8718971
0.101101101;17381.8898692
0.102102102;17436.3445656
0.103103103;17489.1117489
0.104104104;17540.0671814
0.105105105;17589.0866259
0.106106106;17636.0458446
0.107107107;17680.8206001
0.108108108;17723.2866549
0.109109109;17763.3197712
0.11011011;17800.7957119
0.111111111;17835.6525996
0.112112112;17868.0780005
0.113113113;17898.3218406
0.114114114;17926.6340461
0.115115115;17953.2645437
0.116116116;17978.4632593
0.117117117;18002.4801194
0.118118118;18025.5650503
0.119119119;18047.9679784
0.12012012;18069.9388298
0.121121121;18091.678344
0.122122122;18113.1284867
0.123123123;18134.1464254
0.124124124;18154.5892785
0.125125125;18174.3141642
0.126126126;18193.1782008
0.127127127;18211.0385064
0.128128128;18227.7521994
0.129129129;18243.1763982
0.13013013;18257.1682207
0.131131131;18269.6181121
0.132132132;18280.6489341
0.133133133;18290.4825221
0.134134134;18299.3410779
0.135135135;18307.4468028
0.136136136;18315.021898
0.137137137;18322.2885652
0.138138138;18329.4690057
0.139139139;18336.7854207
0.14014014;18344.460012
0.141141141;18352.6885004
0.142142142;18361.4177848
0.143143143;18370.4584314
0.144144144;18379.6196105
0.145145145;18388.7104918
0.146146146;18397.5402451
0.147147147;18405.9180409
0.148148148;18413.6530488
0.149149149;18420.5544386
0.15015015;18426.4313806
0.151151151;18431.1087746
0.152152152;18434.6160583
0.153153153;18437.125708
0.154154154;18438.8131348
0.155155155;18439.85375
0.156156156;18440.4229648
0.157157157;18440.6961905
0.158158158;18440.8488385
0.159159159;18441.05632
0.16016016;18441.4940461
0.161161161;18442.3296222
0.162162162;18443.584325
0.163163163;18445.1494734
0.164164164;18446.9118699
0.165165165;18448.7583164
0.166166166;18450.5756146
0.167167167;18452.2505664
0.168168168;18453.669974
0.169169169;18454.7206394
0.17017017;18455.2893642
0.171171171;18455.265019
0.172172172;18454.5959738
0.173173173;18453.2975946
0.174174174;18451.3888207
0.175175175;18448.8885922
0.176176176;18445.8158487
0.177177177;18442.1895299
0.178178178;18438.0285753
0.179179179;18433.351925
0.18018018;18428.1785184
0.181181181;18422.5278244
0.182182182;18416.4450953
0.183183183;18410.0124524
0.184184184;18403.3148528
0.185185185;18396.4372531
0.186186186;18389.4646102
0.187187187;18382.481881
0.188188188;18375.5740223
0.189189189;18368.825991
0.19019019;18362.322744
0.191191191;18356.1484509
0.192192192;18350.3104394
0.193193193;18344.6757912
0.194194194;18339.096663
0.195195195;18333.4252111
0.196196196;18327.5135922
0.197197197;18321.2139626
0.198198198;18314.3784789
0.199199199;18306.8592976
0.2002002;18298.5085754
0.201201201;18289.178748
0.202202202;18278.797915
0.203203203;18267.4718535
0.204204204;18255.3318182
0.205205205;18242.5090636
0.206206206;18229.1348441
0.207207207;18215.3404143
0.208208208;18201.2570287
0.209209209;18187.015942
0.21021021;18172.7484087
0.211211211;18158.5856642
0.212212212;18144.6263451
0.213213213;18130.869606
0.214214214;18117.2956927
0.215215215;18103.8848506
0.216216216;18090.6173259
0.217217217;18077.4733637
0.218218218;18064.4332102
0.219219219;18051.4771107
0.22022022;18038.5853112
0.221221221;18025.7380571
0.222222222;18012.9131376
0.223223223;18000.0785142
0.224224224;17987.1996919
0.225225225;17974.2421757
0.226226226;17961.1714706
0.227227227;17947.9530815
0.228228228;17934.5525133
0.229229229;17920.9352712
0.23023023;17907.0668598
0.231231231;17892.9127844
0.232232232;17878.4463501
0.233233233;17863.6818984
0.234234234;17848.6472185
0.235235235;17833.3701076
0.236236236;17817.8783626
0.237237237;17802.1997805
0.238238238;17786.3621583
0.239239239;17770.393293
0.24024024;17754.3209816
0.241241241;17738.1730212
0.242242242;17721.9775091
0.243243243;17705.7646394
0.244244244;17689.5654985
0.245245245;17673.4111762
0.246246246;17657.3327623
0.247247247;17641.3613464
0.248248248;17625.5280186
0.249249249;17609.8638685
0.25025025;17594.3999861
0.251251251;17579.1674609
0.252252252;17564.1858981
0.253253253;17549.3669878
0.254254254;17534.5632922
0.255255255;17519.6267677
0.256256256;17504.4093708
0.257257257;17488.7630579
0.258258258;17472.5397855
0.259259259;17455.5915102
0.26026026;17437.7701883
0.261261261;17418.9277764
0.262262262;17398.9298939
0.263263263;17377.8198188
0.264264264;17355.7650703
0.265265265;17332.9357173
0.266266266;17309.5018286
0.267267267;17285.6334728
0.268268268;17261.5007185
0.269269269;17237.2736349
0.27027027;17213.1222904
0.271271271;17189.2167538
0.272272272;17165.7191624
0.273273273;17142.6429761
0.274274274;17119.8696108
0.275275275;17097.2758928
0.276276276;17074.7386485
0.277277277;17052.1347037
0.278278278;17029.340885
0.279279279;17006.2340184
0.28028028;16982.6909303
0.281281281;16958.5884466
0.282282282;16933.8066341
0.283283283;16908.3187754
0.284284284;16882.2031121
0.285285285;16855.5434854
0.286286286;16828.4237364
0.287287287;16800.9277058
0.288288288;16773.1392347
0.289289289;16745.1421641
0.29029029;16717.0203351
0.291291291;16688.8575883
0.292292292;16660.7348467
0.293293293;16632.5908087
0.294294294;16604.1608005
0.295295295;16575.1645073
0.296296296;16545.3216147
0.297297297;16514.3518081
0.298298298;16481.9747728
0.299299299;16447.9101944
0.3003003;16411.8777585
0.301301301;16373.5971502
0.302302302;16332.7900682
0.303303303;16289.3747413
0.304304304;16243.628089
0.305305305;16195.8652034
0.306306306;16146.4011767
0.307307307;16095.5511012
0.308308308;16043.6300692
0.309309309;15990.9531726
0.31031031;15937.8355037
0.311311311;15884.5921548
0.312312312;15831.5378515
0.313313313;15778.8881043
0.314314314;15726.6254407
0.315315315;15674.6989803
0.316316316;15623.0578429
0.317317317;15571.651148
0.318318318;15520.4280152
0.319319319;15469.3375644
0.32032032;15418.3289151
0.321321321;15367.3511869
0.322322322;15316.35351
0.323323323;15265.3028914
0.324324324;15214.2208926
0.325325325;15163.1394442
0.326326326;15112.0904772
0.327327327;15061.1059225
0.328328328;15010.217711
0.329329329;14959.4577734
0.33033033;14908.8580406
0.331331331;14858.4504437
0.332332332;14808.2669132
0.333333333;14758.3702791
0.334334334;14708.9469655
0.335335335;14660.2142954
0.336336336;14612.3895923
0.337337337;14565.690179
0.338338338;14520.3333787
0.339339339;14476.5365143
0.34034034;14434.5169093
0.341341341;14394.4918866
0.342342342;14356.6787691
0.343343343;14321.2447122
0.344344344;14288.0929365
0.345345345;14257.0401733
0.346346346;14227.9031034
0.347347347;14200.4984077
0.348348348;14174.6427672
0.349349349;14150.1528628
0.35035035;14126.8453756
0.351351351;14104.5369863
0.352352352;14083.0443761
0.353353353;14062.2001572
0.354354354;14041.9480472
0.355355355;14022.2790771
0.356356356;14003.1844529
0.357357357;13984.6553805
0.358358358;13966.6830659
0.359359359;13949.258715
0.36036036;13932.3735337
0.361361361;13916.0187281
0.362362362;13900.185504
0.363363363;13884.869226
0.364364364;13870.1043344
0.365365365;13855.9466794
0.366366366;13842.452331
0.367367367;13829.6773588
0.368368368;13817.6778324
0.369369369;13806.5098218
0.37037037;13796.2293964
0.371371371;13786.8926263
0.372372372;13778.5555808
0.373373373;13771.2677521
0.374374374;13764.9931036
0.375375375;13759.6357854
0.376376376;13755.0987206
0.377377377;13751.2848324
0.378378378;13748.097044
0.379379379;13745.4382784
0.38038038;13743.2114587
0.381381381;13741.3195079
0.382382382;13739.6653494
0.383383383;13738.1537708
0.384384384;13736.7245153
0.385385385;13735.348371
0.386386386;13733.9972048
0.387387387;13732.6428837
0.388388388;13731.2572746
0.389389389;13729.8122448
0.39039039;13728.2796609
0.391391391;13726.6313902
0.392392392;13724.8392995
0.393393393;13722.8757828
0.394394394;13720.7283897
0.395395395;13718.4017352
0.396396396;13715.9013443
0.397397397;13713.2327422
0.398398398;13710.4014543
0.399399399;13707.4130054
0.4004004;13704.2729212
0.401401401;13700.9867265
0.402402402;13697.5599468
0.403403403;13693.9980766
0.404404404;13690.3051277
0.405405405;13686.4829913
0.406406406;13682.5333953
0.407407407;13678.458068
0.408408408;13674.2587371
0.409409409;13669.9371306
0.41041041;13665.4949768
0.411411411;13660.9340036
0.412412412;13656.2559388
0.413413413;13651.4627693
0.414414414;13646.5817302
0.415415415;13641.6861389
0.416416416;13636.8542161
0.417417417;13632.1641832
0.418418418;13627.6942612
0.419419419;13623.5226715
0.42042042;13619.7276349
0.421421421;13616.3873728
0.422422422;13613.5801063
0.423423423;13611.3838934
0.424424424;13609.832653
0.425425425;13608.8566524
0.426426426;13608.3712972
0.427427427;13608.2919923
0.428428428;13608.5341428
0.429429429;13609.0131537
0.43043043;13609.6444303
0.431431431;13610.3433776
0.432432432;13611.0254007
0.433433433;13611.6059182
0.434434434;13612.0232505
0.435435435;13612.2856083
0.436436436;13612.4144861
0.437437437;13612.4313788
0.438438438;13612.357781
0.439439439;13612.2151877
0.44044044;13612.0250933
0.441441441;13611.808993
0.442442442;13611.5883812
0.443443443;13611.3847528
0.444444444;13611.2069288
0.445445445;13611.0130356
0.446446446;13610.7485259
0.447447447;13610.358852
0.448448448;13609.7894666
0.449449449;13608.9858224
0.45045045;13607.8933719
0.451451451;13606.4575675
0.452452452;13604.6238623
0.453453453;13602.3377084
0.454454454;13599.5594633
0.455455455;13596.3278981
0.456456456;13592.7074794
0.457457457;13588.762689
0.458458458;13584.5580085
0.459459459;13580.1579194
0.46046046;13575.6269034
0.461461461;13571.0294424
0.462462462;13566.4300179
0.463463463;13561.8931116
0.464464464;13557.4756753
0.465465465;13553.1821507
0.466466466;13548.9946177
0.467467467;13544.8950734
0.468468468;13540.8655151
0.469469469;13536.8879402
0.47047047;13532.9443459
0.471471471;13529.0167294
0.472472472;13525.0870879
0.473473473;13521.137419
0.474474474;13517.1513567
0.475475475;13513.1279161
0.476476476;13509.0745407
0.477477477;13504.9987594
0.478478478;13500.9081015
0.479479479;13496.8100965
0.48048048;13492.7122733
0.481481481;13488.6221613
0.482482482;13484.5472898
0.483483483;13480.4951881
0.484484484;13476.4729143
0.485485485;13472.4814002
0.486486486;13468.517294
0.487487487;13464.577155
0.488488488;13460.6575435
0.489489489;13456.7550191
0.49049049;13452.8661418
0.491491491;13448.9874715
0.492492492;13445.115568
0.493493493;13441.2469911
0.494494494;13437.3783745
0.495495495;13433.5077331
0.496496496;13429.6343084
0.497497497;13425.7573848
0.498498498;13421.8762471
0.4994995;13417.990179
0.500500501;13414.0984653
0.501501502;13410.2003903
0.502502503;13406.2952383
0.503503504;13402.3822935
0.504504505;13398.4609233
0.505505506;13394.5328773
0.506506507;13390.6025879
0.507507508;13386.6746305
0.508508509;13382.7535805
0.50950951;13378.8440134
0.510510511;13374.9505046
0.511511512;13371.0776295
0.512512513;13367.2299637
0.513513514;13363.4120825
0.514514515;13359.6284976
0.515515516;13355.8806277
0.516516517;13352.1654671
0.517517518;13348.47967
0.518518519;13344.8198903
0.51951952;13341.1827826
0.520520521;13337.5650007
0.521521522;13333.9631992
0.522522523;13330.374032
0.523523524;13326.7941533
0.524524525;13323.2202278
0.525525526;13319.6499399
0.526526527;13316.0828345
0.527527528;13312.518655
0.528528529;13308.9571446
0.52952953;13305.3980464
0.530530531;13301.8411037
0.531531532;13298.2860598
0.532532533;13294.7326576
0.533533534;13291.1806406
0.534534535;13287.6297514
0.535535536;13284.0795847
0.536536537;13280.5293874
0.537537538;13276.978357
0.538538539;13273.4256905
0.53953954;13269.8705852
0.540540541;13266.3122384
0.541541542;13262.7498472
0.542542543;13259.1826089
0.543543544;13255.6097209
0.544544545;13252.0303802
0.545545546;13248.4435525
0.546546547;13244.8474985
0.547547548;13241.2403445
0.548548549;13237.6202167
0.54954955;13233.9852414
0.550550551;13230.3335452
0.551551552;13226.663254
0.552552553;13222.9724946
0.553553554;13219.2593928
0.554554555;13215.5220754
0.555555556;13211.75956
0.556556557;13207.9744306
0.557557558;13204.1701625
0.558558559;13200.3502313
0.55955956;13196.5181121
0.560560561;13192.6772807
0.561561562;13188.8312122
0.562562563;13184.9833823
0.563563564;13181.137266
0.564564565;13177.2963393
0.565565566;13173.4634083
0.566566567;13169.6377625
0.567567568;13165.817538
0.568568569;13162.0008704
0.56956957;13158.1858952
0.570570571;13154.370748
0.571571572;13150.5535645
0.572572573;13146.73248
0.573573574;13142.9056304
0.574574575;13139.071151
0.575575576;13135.2277112
0.576576577;13131.3777025
0.577577578;13127.5251012
0.578578579;13123.6738895
0.57957958;13119.8280498
0.580580581;13115.9915644
0.581581582;13112.1684155
0.582582583;13108.3625853
0.583583584;13104.5780564
0.584584585;13100.8188106
0.585585586;13097.0884085
0.586586587;13093.3864431
0.587587588;13089.7103341
0.588588589;13086.0574794
0.58958959;13082.4252764
0.590590591;13078.8111225
0.591591592;13075.2124156
0.592592593;13071.6265532
0.593593594;13068.0509325
0.594594595;13064.4829515
0.595595596;13060.9200767
0.596596597;13057.3606742
0.597597598;13053.8037393
0.598598599;13050.2482801
0.5995996;13046.6933047
0.600600601;13043.137821
0.601601602;13039.5808373
0.602602603;13036.0213614
0.603603604;13032.4584016
0.604604605;13028.8909659
0.605605606;13025.3181576
0.606606607;13021.7408642
0.607607608;13018.161558
0.608608609;13014.5827661
0.60960961;13011.0070159
0.610610611;13007.4368349
0.611611612;13003.8747501
0.612612613;13000.323289
0.613613614;12996.7849788
0.614614615;12993.2623468
0.615615616;12989.7579456
0.616616617;12986.2750495
0.617617618;12982.8177464
0.618618619;12979.3901676
0.61961962;12975.9964441
0.620620621;12972.640707
0.621621622;12969.3270878
0.622622623;12966.0597174
0.623623624;12962.8427269
0.624624625;12959.6802477
0.625625626;12956.5763157
0.626626627;12953.5303341
0.627627628;12950.5350806
0.628628629;12947.5828237
0.62962963;12944.665832
0.630630631;12941.7763739
0.631631632;12938.9067176
0.632632633;12936.0491317
0.633633634;12933.1958849
0.634634635;12930.3392452
0.635635636;12927.4715149
0.636636637;12924.588283
0.637637638;12921.6911373
0.638638639;12918.782304
0.63963964;12915.8640093
0.640640641;12912.9384797
0.641641642;12910.0079411
0.642642643;12907.07462
0.643643644;12904.1407425
0.644644645;12901.2085351
0.645645646;12898.2802214
0.646646647;12895.3573959
0.647647648;12892.4401747
0.648648649;12889.5284617
0.64964965;12886.622161
0.650650651;12883.7211767
0.651651652;12880.8254126
0.652652653;12877.9347729
0.653653654;12875.0491616
0.654654655;12872.1684827
0.655655656;12869.2926403
0.656656657;12866.421286
0.657657658;12863.5533033
0.658658659;12860.6874294
0.65965966;12857.8224015
0.660660661;12854.9569569
0.661661662;12852.0898326
0.662662663;12849.2197658
0.663663664;12846.3454939
0.664664665;12843.4657539
0.665665666;12840.5792831
0.666666667;12837.6856109
0.667667668;12834.787435
0.668668669;12831.8882459
0.66966967;12828.9915336
0.670670671;12826.1007885
0.671671672;12823.2195005
0.672672673;12820.35116
0.673673674;12817.4992571
0.674674675;12814.6672818
0.675675676;12811.8587245
0.676676677;12809.0750483
0.677677678;12806.3070519
0.678678679;12803.5420394
0.67967968;12800.767313
0.680680681;12797.9701748
0.681681682;12795.1379268
0.682682683;12792.2578713
0.683683684;12789.3173102
0.684684685;12786.3035456
0.685685686;12783.2038798
0.686686687;12780.0076764
0.687687688;12776.7186772
0.688688689;12773.3467471
0.68968969;12769.901773
0.690690691;12766.3936425
0.691691692;12762.8322426
0.692692693;12759.2274607
0.693693694;12755.5891839
0.694694695;12751.9272997
0.695695696;12748.2516951
0.696696697;12744.5716587
0.697697698;12740.89085
0.698698699;12737.2098453
0.6996997;12733.5291889
0.700700701;12729.8494254
0.701701702;12726.1710991
0.702702703;12722.4947546
0.703703704;12718.820936
0.704704705;12715.1501883
0.705705706;12711.4830554
0.706706707;12707.819971
0.707707708;12704.1599207
0.708708709;12700.5008793
0.70970971;12696.8408
0.710710711;12693.1776364
0.711711712;12689.509342
0.712712713;12685.8338705
0.713713714;12682.1491751
0.714714715;12678.4532096
0.715715716;12674.7439273
0.716716717;12671.0195699
0.717717718;12667.2837796
0.718718719;12663.5449945
0.71971972;12659.8118199
0.720720721;12656.0928609
0.721721722;12652.3967225
0.722722723;12648.7320098
0.723723724;12645.107328
0.724724725;12641.531282
0.725725726;12638.0124771
0.726726727;12634.55923
0.727727728;12631.1715702
0.728728729;12627.8401946
0.72972973;12624.5553024
0.730730731;12621.3070929
0.731731732;12618.0857657
0.732732733;12614.8815197
0.733733734;12611.6845544
0.734734735;12608.4850689
0.735735736;12605.2732628
0.736736737;12602.0394703
0.737737738;12598.7806112
0.738738739;12595.5030225
0.73973974;12592.2137652
0.740740741;12588.9199
0.741741742;12585.6284881
0.742742743;12582.3465906
0.743743744;12579.0812682
0.744744745;12575.8395821
0.745745746;12572.628593
0.746746747;12569.4552761
0.747747748;12566.3181874
0.748748749;12563.200519
0.74974975;12560.0838275
0.750750751;12556.9496701
0.751751752;12553.7796029
0.752752753;12550.5551832
0.753753754;12547.2579677
0.754754755;12543.8695131
0.755755756;12540.371376
0.756756757;12536.7451483
0.757757758;12532.9818701
0.758758759;12529.0947688
0.75975976;12525.1002533
0.760760761;12521.0147327
0.761761762;12516.8546158
0.762762763;12512.6363115
0.763763764;12508.3762288
0.764764765;12504.0907768
0.765765766;12499.7963643
0.766766767;12495.5093975
0.767767768;12491.241742
0.768768769;12486.9914064
0.76976977;12482.7537656
0.770770771;12478.5241944
0.771771772;12474.2980674
0.772772773;12470.0707594
0.773773774;12465.8376453
0.774774775;12461.5940998
0.775775776;12457.3354976
0.776776777;12453.0572136
0.777777778;12448.7570312
0.778778779;12444.4423694
0.77977978;12440.1230558
0.780780781;12435.8089181
0.781781782;12431.5097838
0.782782783;12427.2354806
0.783783784;12422.9958361
0.784784785;12418.800678
0.785785786;12414.6598339
0.786786787;12410.5831314
0.787787788;12406.5786358
0.788788789;12402.6451415
0.78978979;12398.7784043
0.790790791;12394.9741785
0.791791792;12391.2282181
0.792792793;12387.5362776
0.793793794;12383.8941111
0.794794795;12380.2974729
0.795795796;12376.742117
0.796796797;12373.2237978
0.797797798;12369.7382204
0.798798799;12366.2807462
0.7997998;12362.8465907
0.800800801;12359.430969
0.801801802;12356.029096
0.802802803;12352.6361862
0.803803804;12349.247455
0.804804805;12345.858117
0.805805806;12342.4633872
0.806806807;12339.0584805
0.807807808;12335.639232
0.808808809;12332.2073034
0.80980981;12328.7675494
0.810810811;12325.324857
0.811811812;12321.8841134
0.812812813;12318.450206
0.813813814;12315.0280217
0.814814815;12311.6224479
0.815815816;12308.2383715
0.816816817;12304.8806801
0.817817818;12301.5539733
0.818818819;12298.2591169
0.81981982;12294.9943651
0.820820821;12291.7579185
0.821821822;12288.5479777
0.822822823;12285.3627432
0.823823824;12282.2004157
0.824824825;12279.0591956
0.825825826;12275.9372835
0.826826827;12272.8328802
0.827827828;12269.7441867
0.828828829;12266.6694151
0.82982983;12263.6067877
0.830830831;12260.5545269
0.831831832;12257.5108549
0.832832833;12254.4739942
0.833833834;12251.4421673
0.834834835;12248.4135963
0.835835836;12245.3865041
0.836836837;12242.3591126
0.837837838;12239.3296728
0.838838839;12236.297251
0.83983984;12233.2618319
0.840840841;12230.2234495
0.841841842;12227.1821369
0.842842843;12224.1379285
0.843843844;12221.0908574
0.844844845;12218.0409578
0.845845846;12214.9882631
0.846846847;12211.9328071
0.847847848;12208.8746365
0.848848849;12205.8144261
0.84984985;12202.7537498
0.850850851;12199.6942502
0.851851852;12196.6375702
0.852852853;12193.5853524
0.853853854;12190.5392397
0.854854855;12187.5008747
0.855855856;12184.4719004
0.856856857;12181.4539593
0.857857858;12178.4486861
0.858858859;12175.4569045
0.85985986;12172.4779594
0.860860861;12169.5110381
0.861861862;12166.555328
0.862862863;12163.6100164
0.863863864;12160.6742905
0.864864865;12157.7473378
0.865865866;12154.8283456
0.866866867;12151.916501
0.867867868;12149.0109917
0.868868869;12146.1110218
0.86986987;12143.215835
0.870870871;12140.3246808
0.871871872;12137.4368086
0.872872873;12134.551468
0.873873874;12131.6679084
0.874874875;12128.7853793
0.875875876;12125.9031299
0.876876877;12123.0204099
0.877877878;12120.1364688
0.878878879;12117.2508005
0.87987988;12114.3636445
0.880880881;12111.4753824
0.881881882;12108.5863951
0.882882883;12105.6970643
0.883883884;12102.8077708
0.884884885;12099.9188964
0.885885886;12097.0308221
0.886886887;12094.1439292
0.887887888;12091.2585991
0.888888889;12088.3750203
0.88988989;12085.492611
0.890890891;12082.6105965
0.891891892;12079.7282022
0.892892893;12076.8446534
0.893893894;12073.9591754
0.894894895;12071.0709939
0.895895896;12068.1793339
0.896896897;12065.2834211
0.897897898;12062.3824807
0.898898899;12059.4758382
0.8998999;12056.5633456
0.900900901;12053.6450275
0.901901902;12050.7209085
0.902902903;12047.7910133
0.903903904;12044.8553666
0.904904905;12041.913993
0.905905906;12038.9669173
0.906906907;12036.0141639
0.907907908;12033.0557576
0.908908909;12030.0917228
0.90990991;12027.122081
0.910910911;12024.1468526
0.911911912;12021.1660579
0.912912913;12018.1797177
0.913913914;12015.1878521
0.914914915;12012.1904817
0.915915916;12009.1876268
0.916916917;12006.1793081
0.917917918;12003.1655456
0.918918919;12000.1465666
0.91991992;11997.1245386
0.920920921;11994.1026922
0.921921922;11991.0842692
0.922922923;11988.0725114
0.923923924;11985.0706602
0.924924925;11982.0819575
0.925925926;11979.1096448
0.926926927;11976.156964
0.927927928;11973.2271566
0.928928929;11970.3227673
0.92992993;11967.4372775
0.930930931;11964.5578297
0.931931932;11961.6714372
0.932932933;11958.7651124
0.933933934;11955.8258686
0.934934935;11952.8407184
0.935935936;11949.7966748
0.936936937;11946.6807504
0.937937938;11943.4799583
0.938938939;11940.1820115
0.93993994;11936.7877513
0.940940941;11933.3096774
0.941941942;11929.7606955
0.942942943;11926.1537107
0.943943944;11922.5016286
0.944944945;11918.8173546
0.945945946;11915.1137938
0.946946947;11911.4038517
0.947947948;11907.7004339
0.948948949;11904.0161903
0.94994995;11900.3564344
0.950950951;11896.7182181
0.951951952;11893.0981522
0.952952953;11889.4928479
0.953953954;11885.8989166
0.954954955;11882.3129689
0.955955956;11878.7316161
0.956956957;11875.1514696
0.957957958;11871.5691401
0.958958959;11867.9812757
0.95995996;11864.3863189
0.960960961;11860.7852789
0.961961962;11857.1793618
0.962962963;11853.569774
0.963963964;11849.9577217
0.964964965;11846.3444115
0.965965966;11842.7310496
0.966966967;11839.1188422
0.967967968;11835.5089959
0.968968969;11831.9026956
0.96996997;11828.2990678
0.970970971;11824.6934812
0.971971972;11821.0809042
0.972972973;11817.4563058
0.973973974;11813.8146545
0.974974975;11810.150919
0.975975976;11806.460068
0.976976977;11802.7370703
0.977977978;11798.9768943
0.978978979;11795.1745181
0.97997998;11791.3273877
0.980980981;11787.438746
0.981981982;11783.5126666
0.982982983;11779.5532237
0.983983984;11775.5644908
0.984984985;11771.5505419
0.985985986;11767.5154509
0.986986987;11763.4632914
0.987987988;11759.3981376
0.988988989;11755.3240636
0.98998999;11751.2458132
0.990990991;11747.1701742
0.991991992;11743.1043221
0.992992993;11739.055433
0.993993994;11735.0306827
0.994994995;11731.0372474
0.995995996;11727.0823027
0.996996997;11723.1730247
0.997997998;11719.3165893
0.998998999;11715.5201722
