0	0.00187
0.001	0.00187
0.002	0.00187
0.003	0.00187
0.004	0.00187
0.005	0.00187
0.006	0.00187
0.007	0.00187
0.008	0.00187
0.009	0.00187
0.01	0.00187
0.011	0.00187
0.012	0.00187
0.013	0.00187
0.014	0.00187
0.015	0.00187
0.016	0.00187
0.017	0.00187
0.018	0.00187
0.019	0.00187
0.02	0.00187
0.021	0.00187
0.022	0.00187
0.023	0.00187
0.024	0.00187
0.025	0.00187
